<svg width="47" height="48" viewBox="0 0 47 48" fill="none" xmlns="http://www.w3.org/2000/svg">
<path d="M0 17.8125H3.67188V30.1875H0V17.8125ZM7.25195 37.6875H10.9238V10.3125H7.25195V37.6875ZM14.4121 45.1875H18.084V2.8125H14.4121V45.1875ZM21.5723 30.1875H25.2441V17.8125H21.5723V30.1875ZM28.8242 40.5H32.4961V7.5H28.8242V40.5ZM43.3281 17.8125V31.125H47V17.8125H43.3281ZM36.0762 45.1875H39.748V2.8125H36.0762V45.1875Z" fill="url(#paint0_linear)"/>
<defs>
<linearGradient id="paint0_linear" x1="23.5" y1="2.8125" x2="23.5" y2="45.1875" gradientUnits="userSpaceOnUse">
<stop stop-color="#FCCB90"/>
<stop offset="1" stop-color="#F5576C"/>
</linearGradient>
</defs>
</svg>
