<svg width="22" height="14" viewBox="0 0 22 14" fill="none" xmlns="http://www.w3.org/2000/svg">
<path d="M10.9999 13.2704C10.6057 13.2704 10.2114 13.1198 9.91081 12.8193L0.451311 3.35975C-0.150437 2.758 -0.150437 1.78237 0.451311 1.18086C1.05282 0.57936 2.02825 0.57936 2.63005 1.18086L10.9999 9.55124L19.3699 1.18116C19.9716 0.579653 20.947 0.579653 21.5484 1.18116C22.1505 1.78266 22.1505 2.75829 21.5484 3.36004L12.0891 12.8196C11.7883 13.1202 11.3941 13.2704 10.9999 13.2704Z" fill="white"/>
</svg>
