<svg width="36" height="36" viewBox="0 0 36 36" fill="none" xmlns="http://www.w3.org/2000/svg">
<g clip-path="url(#clip0)">
<path d="M34.8023 8.24721C34.0837 7.49436 33.0913 7.04949 31.962 7.04949H26.2814V6.98105C26.2814 6.12554 25.9392 5.30425 25.3574 4.75672C24.7757 4.17497 23.9886 3.83276 23.1331 3.83276H12.8669C11.9772 3.83276 11.1901 4.17497 10.6084 4.75672C10.0266 5.33847 9.68441 6.12554 9.68441 6.98105V7.04949H4.03802C2.90875 7.04949 1.91635 7.49436 1.19772 8.24721C0.479088 8.96584 0 9.99246 0 11.0875V28.1293C0 29.2586 0.444867 30.251 1.19772 30.9696C1.91635 31.6883 2.94297 32.1673 4.03802 32.1673H31.962C33.0913 32.1673 34.0837 31.7225 34.8023 30.9696C35.5209 30.251 36 29.2244 36 28.1293V11.0875C36 9.95824 35.5551 8.96584 34.8023 8.24721ZM34.2205 28.1293H34.1863C34.1863 28.7453 33.9468 29.2928 33.5361 29.7035C33.1255 30.1141 32.5779 30.3537 31.962 30.3537H4.03802C3.42205 30.3537 2.87452 30.1141 2.46388 29.7035C2.05323 29.2928 1.81369 28.7453 1.81369 28.1293V11.0875C1.81369 10.4715 2.05323 9.92401 2.46388 9.51337C2.87452 9.10272 3.42205 8.86318 4.03802 8.86318H10.6426C11.1559 8.86318 11.5665 8.45253 11.5665 7.93923V6.94683C11.5665 6.5704 11.7034 6.2282 11.943 5.98866C12.1825 5.74911 12.5247 5.61223 12.9011 5.61223H23.1331C23.5095 5.61223 23.8517 5.74911 24.0913 5.98866C24.3308 6.2282 24.4677 6.5704 24.4677 6.94683V7.93923C24.4677 8.45253 24.8783 8.86318 25.3916 8.86318H31.9962C32.6122 8.86318 33.1597 9.10272 33.5703 9.51337C33.981 9.92401 34.2205 10.4715 34.2205 11.0875V28.1293Z" fill="white"/>
<path d="M18.0003 11.1902C15.6733 11.1902 13.5516 12.1484 12.0459 13.6541C10.506 15.194 9.58203 17.2814 9.58203 19.6084C9.58203 21.9354 10.5402 24.0571 12.0459 25.5628C13.5858 27.1027 15.6733 28.0267 18.0003 28.0267C20.3273 28.0267 22.449 27.0685 23.9547 25.5628C25.4946 24.0229 26.4185 21.9354 26.4185 19.6084C26.4185 17.2814 25.4604 15.1598 23.9547 13.6541C22.449 12.1484 20.3273 11.1902 18.0003 11.1902ZM22.6543 24.2966C21.4566 25.4601 19.814 26.213 18.0003 26.213C16.1866 26.213 14.544 25.4601 13.3463 24.2966C12.1486 23.0989 11.4299 21.4563 11.4299 19.6427C11.4299 17.829 12.1828 16.1864 13.3463 14.9887C14.544 13.7909 16.1866 13.0723 18.0003 13.0723C19.814 13.0723 21.4566 13.8252 22.6543 14.9887C23.852 16.1864 24.5706 17.829 24.5706 19.6427C24.6049 21.4563 23.852 23.0989 22.6543 24.2966Z" fill="white"/>
<path d="M30.1827 14.5094C31.1087 14.5094 31.8595 13.7586 31.8595 12.8326C31.8595 11.9065 31.1087 11.1558 30.1827 11.1558C29.2566 11.1558 28.5059 11.9065 28.5059 12.8326C28.5059 13.7586 29.2566 14.5094 30.1827 14.5094Z" fill="white"/>
</g>
<defs>
<clipPath id="clip0">
<rect width="36" height="36" fill="white"/>
</clipPath>
</defs>
</svg>
