<svg width="42" height="42" viewBox="0 0 42 42" fill="none" xmlns="http://www.w3.org/2000/svg">
<circle cx="21" cy="21" r="21" fill="#F5576C"/>
<path d="M28.4407 20.6506L16.7807 27.4046L16.7616 13.9297L28.4407 20.6506Z" fill="white"/>
</svg>
