<svg width="24" height="24" viewBox="0 0 24 24" fill="none" xmlns="http://www.w3.org/2000/svg">
<path d="M3.49433 22.5656H1.79379L2.99624 21.3632C3.64459 20.7148 4.04946 19.8716 4.15831 18.9568C1.38183 17.1347 0 14.4951 0 11.7279C0 6.62267 4.69218 1.43457 12.0407 1.43457C19.8256 1.43457 24 6.20859 24 11.2806C24 16.3861 19.7815 21.1569 12.0407 21.1569C10.6847 21.1569 9.26968 20.9759 8.00637 20.6437C6.81049 21.8703 5.19016 22.5656 3.49433 22.5656Z" fill="currentColor"/>
<rect x="6" y="9" width="12" height="2" rx="1" fill="white"/>
<rect x="7" y="13" width="9" height="2" rx="1" fill="white"/>
</svg>
