<svg width="24" height="24" viewBox="0 0 24 24" fill="none" xmlns="http://www.w3.org/2000/svg">
<path d="M18.0613 13.404L14.1552 11.6852L11.7607 5.53312L11.5682 5.03565C11.6922 4.5895 11.8429 4.09442 12.026 3.55556C12.1066 3.31828 12.1118 3.06929 12.0535 2.83876L11.667 2.68549L11.0225 3.04876L7.67097 8.66476L6.7335 13.1383L2.04611 18.3882L1.94824 18.9877C3.30463 20.3441 5.99687 23.0363 6.44119 23.4807C6.66445 23.7039 7.02646 23.7039 7.24972 23.4807L11.5448 19.1856C12.5832 18.1472 13.7214 17.2156 14.9288 16.3796C16.1129 15.5597 17.222 14.6365 18.2436 13.6214L18.0613 13.404Z" fill="#FFDECF"/>
<path d="M22.5679 7.50869C22.0825 7.04229 21.3108 7.04815 20.8326 7.52641L22.3638 5.99513C22.8554 5.50361 22.8672 4.68726 22.3665 4.20516C21.8811 3.73783 21.1087 3.74341 20.6302 4.22194L22.1575 2.6947C22.6417 2.2105 22.6416 1.4255 22.1575 0.941293C21.6733 0.457087 20.8882 0.457087 20.4041 0.941293L18.8768 2.46854C19.361 1.98433 19.361 1.19929 18.8768 0.715127C18.3926 0.230921 17.6076 0.230967 17.1234 0.715127L13.0859 4.7526L13.0941 4.99803L15.8429 6.76236L20.9209 10.5673L21.3204 10.5455C21.9965 9.86939 22.5278 9.33813 22.5654 9.30044C23.0573 8.80845 23.0697 7.99079 22.5679 7.50869Z" fill="#FFDECF"/>
<path d="M22.3477 7.34067C21.8933 7.06693 21.3016 7.11052 20.891 7.47154L19.1338 9.22874L19.8917 9.79671L22.3477 7.34067Z" fill="#FFCEBE"/>
<path d="M17.1224 0.715071L13.085 4.75255L13.0932 4.99798L13.7361 5.41066L18.6253 0.521389C18.1503 0.243146 17.5299 0.307644 17.1224 0.715071Z" fill="#FFCEBE"/>
<path d="M20.4029 0.941263L18.8757 2.46851C18.9007 2.44352 18.924 2.4176 18.9464 2.39112L15.0703 6.26725L15.8417 6.76238L15.8756 6.78779L21.9121 0.751283C21.4363 0.468775 20.8122 0.532054 20.4029 0.941263Z" fill="#FFCEBE"/>
<path d="M22.1441 4.03584C21.6879 3.7613 21.0933 3.80639 20.6827 4.17145L17.1279 7.72617L17.8858 8.29409L22.1441 4.03584Z" fill="#FFCEBE"/>
<path d="M2.27285 18.6749L5.97579 14.9719C7.20036 13.7474 7.67435 11.8246 7.85786 10.5194C8.00645 9.46231 8.34033 8.44013 8.84873 7.50153L11.0235 3.48641C11.2369 3.09263 11.6341 2.85962 12.0533 2.8389C11.97 2.50933 11.7557 2.21787 11.4366 2.05508C10.8471 1.75433 10.1281 1.97975 9.81433 2.55888L7.68059 6.49815C7.1818 7.41903 6.85425 8.4219 6.70842 9.45898C6.52838 10.7395 6.06335 12.626 4.86192 13.8274L1.22897 17.4604C1.00571 17.6836 1.00571 18.0457 1.22897 18.2689L2.10513 19.1451C2.0884 18.9772 2.14423 18.8035 2.27285 18.6749Z" fill="#FFCEBE"/>
<path d="M18.0605 5.91223C16.3332 6.35289 15.0557 7.91833 15.0557 9.78283C15.0557 11.6473 16.3332 13.2128 18.0605 13.6534C19.947 13.3734 21.3946 11.7474 21.3946 9.78283C21.3946 7.8183 19.9471 6.19226 18.0605 5.91223Z" fill="#FFEB7E"/>
<path d="M15.1219 9.78279C15.1219 7.88735 16.4695 6.30696 18.2587 5.94659C18.0076 5.89601 17.7479 5.8692 17.4819 5.8692C15.3205 5.8692 13.5684 7.62134 13.5684 9.78279C13.5684 11.9442 15.3205 13.6964 17.4819 13.6964C17.7479 13.6964 18.0076 13.6696 18.2587 13.619C16.4695 13.2587 15.1219 11.6782 15.1219 9.78279Z" fill="#FFE02F"/>
<path d="M13.6142 4.79425C11.8869 5.23491 10.6094 6.80035 10.6094 8.66485C10.6094 10.5293 11.8869 12.0948 13.6142 12.5354C15.5008 12.2554 16.9484 10.6294 16.9484 8.66485C16.9484 6.70032 15.5008 5.07427 13.6142 4.79425Z" fill="#FFEB7E"/>
<path d="M10.6747 8.66481C10.6747 6.76937 12.0222 5.18898 13.8115 4.82861C13.5604 4.77803 13.3007 4.75122 13.0347 4.75122C10.8733 4.75122 9.12109 6.50336 9.12109 8.66481C9.12109 10.8262 10.8732 12.5784 13.0347 12.5784C13.3006 12.5784 13.5604 12.5516 13.8115 12.501C12.0222 12.1406 10.6747 10.5602 10.6747 8.66481Z" fill="#FFE02F"/>
<path d="M14.8836 8.35726C14.4025 7.87629 13.6442 7.82674 13.0628 8.19522L12.0424 7.17468C12.3223 7.06256 12.6377 7.10573 12.8455 7.31347C12.9827 7.45081 13.2054 7.45077 13.3426 7.31347C13.4799 7.17618 13.4799 6.95358 13.3426 6.81633C12.8616 6.33531 12.1032 6.28581 11.5219 6.65429L11.4878 6.62021C11.3505 6.48291 11.1279 6.48291 10.9906 6.62021C10.8533 6.7575 10.8533 6.98011 10.9906 7.11735L11.0247 7.15143C10.6563 7.73271 10.7057 8.49113 11.1868 8.97215C11.666 9.45134 12.423 9.50459 13.0075 9.13419L14.0279 10.1547C13.748 10.2668 13.4326 10.2237 13.2249 10.0159C13.0876 9.87865 12.865 9.87865 12.7277 10.0159C12.5904 10.1532 12.5904 10.3758 12.7277 10.5131C13.2076 10.9928 13.9645 11.0451 14.5484 10.6751L14.5826 10.7093C14.6512 10.7779 14.7412 10.8122 14.8312 10.8122C14.9211 10.8122 15.0111 10.7779 15.0798 10.7093C15.2171 10.5719 15.2171 10.3494 15.0798 10.2121L15.0457 10.178C15.4141 9.5967 15.3646 8.83828 14.8836 8.35726ZM11.684 8.47501C11.4762 8.26722 11.433 7.95185 11.5452 7.67192L12.4871 8.6138C12.2071 8.72592 11.8917 8.68275 11.684 8.47501ZM14.5252 9.65754L13.5833 8.71566C13.8632 8.60354 14.1786 8.64671 14.3864 8.85445C14.5942 9.0622 14.6373 9.37761 14.5252 9.65754Z" fill="black"/>
<path d="M22.0124 6.84347L22.6123 6.24367C23.2344 5.62142 23.2609 4.57843 22.6101 3.95187C22.382 3.73222 22.1026 3.59474 21.8101 3.53891L22.4058 2.94324C23.0279 2.32118 23.0279 1.31466 22.4058 0.692643C21.784 0.0707209 20.7772 0.0706271 20.1552 0.692643H20.1552L19.562 1.28578C19.5023 0.97726 19.3523 0.69358 19.1251 0.466476C18.5033 -0.155445 17.4965 -0.155539 16.8745 0.466476L12.9369 4.40411C12.652 4.41058 12.3679 4.44527 12.0887 4.50836C12.1736 4.23002 12.2634 3.94948 12.3588 3.66866C12.6127 2.92135 12.285 2.093 11.5966 1.74182C10.8324 1.35206 9.91383 1.63729 9.50546 2.39135L7.37172 6.33063C6.85353 7.28727 6.51337 8.32333 6.3606 9.40995C6.17981 10.6956 5.72996 12.4624 4.61357 13.5787L0.980663 17.2117C0.619641 17.5727 0.619828 18.1566 0.980616 18.5174L2.83687 20.3737C2.97421 20.5109 3.19676 20.5109 3.33406 20.3737C3.47135 20.2364 3.47135 20.0138 3.33406 19.8765L1.47781 18.0203C1.39184 17.9344 1.39151 17.7951 1.47781 17.7089L5.11071 14.0759C6.36454 12.8221 6.86108 10.8997 7.05682 9.50783C7.19791 8.50449 7.51183 7.54817 7.98994 6.66549L10.1237 2.72622C10.349 2.3104 10.8556 2.15318 11.2771 2.36815C11.6565 2.56169 11.8353 3.02354 11.693 3.44245C11.5407 3.8908 11.4004 4.33947 11.2753 4.77859C10.8293 4.98028 10.387 5.28107 10.0191 5.64889C8.35612 7.31183 8.35612 10.0177 10.0191 11.6806C11.1735 12.8348 12.8658 13.2165 14.3819 12.7119C15.1113 13.4884 16.158 13.9937 17.2918 14.0436C16.4846 14.7832 15.6255 15.4694 14.7285 16.0905C13.4642 16.966 12.3095 17.9236 11.296 18.937L7.00095 23.2321C6.91489 23.3182 6.77562 23.3182 6.68961 23.2321L4.49404 21.0365C4.35675 20.8992 4.13419 20.8992 3.99685 21.0365C3.85956 21.1738 3.85956 21.3964 3.99685 21.5337L6.19242 23.7292C6.5534 24.0901 7.1373 24.0901 7.49814 23.7292L11.7932 19.4342C12.7768 18.4506 13.8991 17.5201 15.1287 16.6686C16.2975 15.8592 17.4031 14.942 18.4175 13.9423C18.9066 13.8325 19.3756 13.6377 19.7986 13.3635C19.9615 13.2579 20.008 13.0402 19.9023 12.8773C19.7967 12.7144 19.579 12.6679 19.4161 12.7736C18.0676 13.648 16.2672 13.499 15.077 12.41C15.8905 11.9671 16.5328 11.2606 16.8986 10.4708C17.0952 10.4348 17.2838 10.3606 17.4541 10.2525L18.4743 11.2727C18.1944 11.3847 17.879 11.3416 17.6713 11.1339C17.5339 10.9966 17.3114 10.9966 17.1741 11.1339C17.0368 11.2712 17.0368 11.4938 17.1741 11.6311C17.4447 11.9017 17.8031 12.0359 18.1684 12.0358C18.4525 12.0358 18.7405 11.9542 18.9947 11.7931L19.0289 11.8272C19.0975 11.8959 19.1875 11.9302 19.2775 11.9302C19.3674 11.9302 19.4574 11.8959 19.5261 11.8272C19.6634 11.6899 19.6634 11.4673 19.5261 11.33L19.4923 11.2963C19.8565 10.7241 19.82 9.96527 19.3299 9.47525C18.8411 8.98621 18.0824 8.94787 17.5088 9.31278L17.2784 9.08226C17.2862 9.00107 17.2927 8.91961 17.2959 8.83758C17.3014 8.70169 17.2996 8.56637 17.2923 8.43188C17.3609 8.50018 17.4506 8.5344 17.5403 8.5344C17.6303 8.5344 17.7203 8.50009 17.789 8.43142C17.9262 8.29412 17.9262 8.07152 17.789 7.93427C17.6154 7.76079 17.3967 7.63756 17.1578 7.57527C17.0381 7.1212 16.8443 6.69704 16.6046 6.33053C17.9282 5.99393 19.3285 6.44354 20.207 7.48986C20.2083 7.49145 20.2097 7.49295 20.211 7.49455C21.2016 8.67849 21.3227 10.4058 20.4724 11.7173C20.3667 11.8802 20.4132 12.0979 20.5761 12.2035C20.739 12.3091 20.9567 12.2627 21.0623 12.0998C21.3358 11.678 21.5298 11.2104 21.6397 10.7228L22.8136 9.54893C23.4326 8.92997 23.4666 7.88482 22.8112 7.25502C22.5834 7.03617 22.3045 6.89911 22.0124 6.84347ZM18.8328 9.97253C19.0307 10.1704 19.0905 10.4796 18.9719 10.7759L18.0295 9.8335C18.3272 9.71416 18.636 9.77566 18.8328 9.97253ZM17.3717 0.96362C17.7189 0.616473 18.2808 0.616473 18.6279 0.96362C18.9743 1.30997 18.9743 1.87353 18.6279 2.21989L15.5946 5.25318C15.0888 4.87266 14.4963 4.60365 13.856 4.47934L17.3717 0.96362ZM15.5058 11.2289C13.8594 12.8161 11.1383 12.4607 9.96703 10.4753C9.16085 9.10893 9.3452 7.31741 10.5163 6.14618C11.9798 4.68245 14.4056 4.76396 15.7615 6.37422L15.7615 6.37426C16.9532 7.78906 16.8505 9.93133 15.5058 11.2289ZM18.6687 5.68597C17.8085 5.43665 16.9224 5.47307 16.1346 5.73556C16.13 5.73069 16.1254 5.72619 16.1209 5.72136C16.3077 5.53457 20.4645 1.3777 20.6524 1.18983C20.9996 0.842686 21.5614 0.842686 21.9087 1.18983C22.2559 1.53707 22.2559 2.09886 21.9086 2.4461C21.6027 2.752 19.0869 5.26776 18.6687 5.68597ZM20.7813 7.08023C20.4065 6.62387 19.9325 6.23866 19.3838 5.96524L20.8785 4.47048C21.2183 4.13065 21.7764 4.12526 22.1224 4.45839C22.485 4.80746 22.4636 5.39798 22.115 5.74648L20.7813 7.08023ZM22.3165 9.05179L21.7438 9.62459C21.7192 8.95439 21.5341 8.28208 21.1929 7.68026C21.5337 7.43797 22.014 7.46413 22.3242 7.76215C22.688 8.1116 22.665 8.70347 22.3165 9.05179Z" fill="black"/>
</svg>
